^C:\USERS\300070180\SOURCE\REPOS\AMP.TICTACTOE\AMP.TICTACTOE\DEBUG\MAIN.OBJ
C:\USERS\300070180\SOURCE\REPOS\AMP.TICTACTOE\DEBUG\AMP.TICTACTOE.EXE
C:\USERS\300070180\SOURCE\REPOS\AMP.TICTACTOE\AMP.TICTACTOE\DEBUG\AMP.TICTACTOE.ILK
C:\USERS\300070180\SOURCE\REPOS\AMP.TICTACTOE\DEBUG\AMP.TICTACTOE.PDB
